Stat consulting: a data science playground | Silas Bergen
…
##    id  Term Question Response
## 1  23 Term1  CDRS_Q1        4
## 2 183 Term1  CDRS_Q1        3
## 3  80 Term1  CDRS_Q1        3
## 4   1 Term1  CDRS_Q1        3
## 5 166 Term1  CDRS_Q1        3
## 6  15 Term1  CDRS_Q1        3

post_melt %>% 
  group_by(id,Term) %>%
  summarize(post_mean = mean(Response))

## # A tibble: 67 x 3
## # Groups:   id [?]
##       id Term  post_mean
##    <int> <fct>     <dbl>
##  1     1 Term1      3.33
##  2     2 Term3      3   
##  3     4 Term2      2.83
##  4     8 Term2      3.11
##  5     9 Term1      2.72
##  6    13 Term4      2.72
##  7    15 Term1      2.78
##  8    20 Term1      3   
##  9    23 Term1      3.5 
## 10    26 Term4      2.56
## # ... with 57 more rows
…
